range,mean,error,std,variance,window_size
600,600.281,0.281,3.26510e-5,11e-10,41
703,703.523,0.523,4.33064e-5,19e-10,41
750,750.177,0.177,5.75803e-5,33e-10,41
800,800.814,0.814,5.26624e-5,28e-10,41
850,850.515,0.515,3.15763e-5,10e-10,41
